﻿
Creo Parametric INTERFACE EXPORT LOG FILE 

DWG output for Drawing MSA_UNDER_WIRE_COVER_A_R1.



Process began at: 2021년 7월 7일 수요일 오후 5:00:44

Process finished at: 2021년 7월 7일 수요일 오후 5:00:52

Total process time: 00:00:08.

DXF/DWG export configuration options chosen:

DWG_EXPORT_FORMAT                 14
INTF2D_OUT_DXF_MAPPING_FILE       D:\PTC\pro_stds\configs\dxf_export.pro
DXF_OUT_DRAWING_SCALE             NO
DXF_OUT_SCALE_VIEWS               YES
DXF_OUT_SEP_DIM_W_BREAKS          NO
INTF2D_OUT_STROKE_TEXT            NONE
INTF2D_OUT_ENHANCED_ENTS          SPLINE_AND_HATCH
INTF_OUT_LAYER                    NONE
INTF2D_OUT_ACAD_MTEXT             YES
INTF2D_OUT_ACAD_TEXT_ALIGN        AS_IS
INTF2D_OUT_PNT_ENT                NO
INTF2D_OUT_OPEN_LOG_WINDOW        NO



Output file name                  msa_under_wire_cover_a_r1.dwg
Drawing units                     MM
Sheet width                       420.000000
Sheet height                      297.000000




ENTITIES:

name                             number
____                             ______

ARC                              12
BLOCK                            3
CIRCLE                           4
ENDBLK                           3
LINE                             80
MTEXT                            27
SOLID                            1
SPLINE                           47

TOTAL    177




LAYERS:

name                             number
____                             ______

0                                150
00_BEAM                          0
01___PRT_ALL_DTM_PLN             0
01___PRT_DEF_DTM_PLN             0
02___PRT_ALL_AXES                20
03___PRT_ALL_CURVES              0
04___PRT_ALL_DTM_PNT             0
05___PRT_ALL_DTM_CSYS            0
05___PRT_DEF_DTM_CSYS            0
06___PRT_ALL_SURFS               0
DEFAULT_1                        0
DEFAULT_2                        0
DEFAULT_3                        0



BLOCKS:

name                             number
____                             ______

_ARROW_FILLED                    2
